<svg width="64" height="64" viewBox="0 0 64 64" fill="none" xmlns="http://www.w3.org/2000/svg">
<path d="M40.7 45.4196L39.07 43.7996C38.0074 42.742 36.5692 42.1482 35.07 42.1482C33.5708 42.1482 32.1326 42.742 31.07 43.7996C30.8918 43.9784 30.7507 44.1905 30.6546 44.4239C30.5585 44.6572 30.5094 44.9073 30.51 45.1596C30.5171 45.6244 30.3544 46.0758 30.0525 46.4293C29.7506 46.7827 29.3302 47.014 28.87 47.0796C27.252 47.2886 25.6075 47.1238 24.0632 46.5978C22.5188 46.0718 21.1157 45.1987 19.9616 44.0455C18.8075 42.8924 17.9331 41.4899 17.4059 39.946C16.8786 38.4021 16.7124 36.7578 16.92 35.1396C16.9856 34.6794 17.2169 34.259 17.5703 33.9571C17.9238 33.6552 18.3752 33.4925 18.84 33.4996C19.0924 33.5002 19.3424 33.4511 19.5757 33.355C19.8091 33.2589 20.0212 33.1178 20.2 32.9396C21.2576 31.8771 21.8514 30.4389 21.8514 28.9396C21.8514 27.4404 21.2576 26.0022 20.2 24.9396L18.58 23.2996C18.0423 22.7516 17.39 22.3294 16.6698 22.0634C15.9497 21.7973 15.1795 21.6941 14.4147 21.761C13.6499 21.8279 12.9094 22.0634 12.2464 22.4504C11.5834 22.8375 11.0143 23.3665 10.58 23.9996C8.68715 26.8361 7.7805 30.2167 7.99999 33.6196C8.40334 39.4221 10.8907 44.8831 15.0036 48.996C19.1165 53.1089 24.5775 55.5963 30.38 55.9996C33.7841 56.2162 37.1648 55.306 40 53.4096C40.6314 52.9752 41.1589 52.4066 41.5449 51.7444C41.9309 51.0823 42.1657 50.343 42.2326 49.5796C42.2995 48.8161 42.1968 48.0472 41.9318 47.3281C41.6669 46.6089 41.2462 45.9572 40.7 45.4196Z" fill="#ED3F3E"/>
<path d="M39.9004 28.1504L31.9004 36.1504C31.7961 36.2586 31.6617 36.333 31.5145 36.364C31.3674 36.3949 31.2144 36.3808 31.0753 36.3237C30.9363 36.2666 30.8176 36.169 30.7347 36.0436C30.6518 35.9181 30.6085 35.7707 30.6104 35.6204V28.1504H39.9004Z" fill="#830900"/>
<path d="M28.08 33.0596H54.01C55.109 33.0596 56 32.1686 56 31.0696V9.98957C56 8.89052 55.109 7.99957 54.01 7.99957L28.08 7.99957C26.981 7.99957 26.09 8.89052 26.09 9.98957L26.09 31.0696C26.09 32.1686 26.981 33.0596 28.08 33.0596Z" fill="#830900"/>
<path d="M41.04 28.7803C45.5964 28.7803 49.29 25.0866 49.29 20.5303C49.29 15.9739 45.5964 12.2803 41.04 12.2803C36.4837 12.2803 32.79 15.9739 32.79 20.5303C32.79 25.0866 36.4837 28.7803 41.04 28.7803Z" fill="white"/>
<path d="M38.5195 19.7396C38.9337 19.7396 39.2695 19.2606 39.2695 18.6696C39.2695 18.0787 38.9337 17.5996 38.5195 17.5996C38.1053 17.5996 37.7695 18.0787 37.7695 18.6696C37.7695 19.2606 38.1053 19.7396 38.5195 19.7396Z" fill="#ED3F3E"/>
<path d="M43.5703 19.7396C43.9845 19.7396 44.3203 19.2606 44.3203 18.6696C44.3203 18.0787 43.9845 17.5996 43.5703 17.5996C43.1561 17.5996 42.8203 18.0787 42.8203 18.6696C42.8203 19.2606 43.1561 19.7396 43.5703 19.7396Z" fill="#ED3F3E"/>
<path d="M38.19 21C38.1332 21.0005 38.0772 21.0135 38.0259 21.0379C37.9746 21.0624 37.9292 21.0978 37.893 21.1416C37.8568 21.1854 37.8307 21.2366 37.8163 21.2916C37.802 21.3466 37.7998 21.4041 37.81 21.46C37.9245 22.2362 38.3143 22.9453 38.9082 23.458C39.502 23.9708 40.2605 24.2528 41.045 24.2528C41.8296 24.2528 42.5881 23.9708 43.1819 23.458C43.7758 22.9453 44.1656 22.2362 44.28 21.46C44.2885 21.4043 44.2852 21.3475 44.2702 21.2932C44.2552 21.2389 44.2289 21.1884 44.193 21.1449C44.1571 21.1015 44.1125 21.0662 44.062 21.0412C44.0115 21.0162 43.9563 21.0022 43.9 21H38.19Z" fill="#ED3F3E"/>
</svg>
