<svg width="75" height="75" viewBox="0 0 75 75" fill="none" xmlns="http://www.w3.org/2000/svg">
<mask id="path-1-inside-1" fill="white">
<path d="M26.0388 15.8911L16.8631 30.6567C16.6565 30.9972 16.5676 31.3961 16.6099 31.7921C16.6523 32.188 16.8236 32.5591 17.0974 32.8482L18.9607 34.7818C19.6384 35.4736 20.5138 35.9386 21.4664 36.1128C22.4191 36.2869 23.4024 36.1618 24.281 35.7544L25.9685 34.9575C27.0676 34.4463 28.273 34.2053 29.4841 34.2544C30.5857 34.313 32.1912 34.3716 34.2771 34.3716L24.7263 51.106C24.0045 52.382 23.6802 53.8445 23.795 55.306C23.9099 56.7676 24.4586 58.1615 25.3709 59.3091H55.0779C55.0779 59.3091 68.1912 13.2661 35.2263 10.7935C35.0859 10.805 34.9448 10.805 34.8045 10.7935L26.8006 9.3755C26.5719 9.33501 26.3368 9.35325 26.1171 9.42849C25.8975 9.50374 25.7005 9.63353 25.5447 9.8057C25.389 9.97787 25.2795 10.1868 25.2265 10.4128C25.1736 10.6389 25.1789 10.8747 25.242 11.0982L26.2263 14.6138C26.2817 14.8284 26.2937 15.052 26.2615 15.2714C26.2293 15.4907 26.1536 15.7014 26.0388 15.8911Z"/>
</mask>
<path d="M16.8631 30.6567L13.4656 28.5455L13.4543 28.5637L13.4432 28.582L16.8631 30.6567ZM17.0974 32.8482L14.1937 35.5992L14.2054 35.6115L14.2171 35.6237L17.0974 32.8482ZM18.9607 34.7818L16.0804 37.5573L16.0917 37.5691L16.1031 37.5807L18.9607 34.7818ZM24.281 35.7544L25.9634 39.3834L25.9763 39.3774L25.989 39.3714L24.281 35.7544ZM25.9685 34.9575L24.2817 31.3306L24.2711 31.3355L24.2605 31.3405L25.9685 34.9575ZM29.4841 34.2544L29.6966 30.2601L29.6715 30.2587L29.6463 30.2577L29.4841 34.2544ZM34.2771 34.3716L37.7511 36.3543L41.1656 30.3716H34.2771V34.3716ZM24.7263 51.106L21.2523 49.1232L21.2485 49.1298L21.2448 49.1365L24.7263 51.106ZM25.3709 59.3091L22.2397 61.7982L23.4407 63.3091H25.3709V59.3091ZM55.0779 59.3091V63.3091H58.0977L58.9249 60.4047L55.0779 59.3091ZM35.2263 10.7935L35.5255 6.80467L35.2122 6.78117L34.8991 6.80688L35.2263 10.7935ZM34.8045 10.7935L34.1067 14.7321L34.2908 14.7648L34.4772 14.7801L34.8045 10.7935ZM26.8006 9.3755L27.4983 5.43683L27.4981 5.43679L26.8006 9.3755ZM25.242 11.0982L29.0938 10.0196L29.0915 10.0112L25.242 11.0982ZM26.2263 14.6138L30.0994 13.614L30.0892 13.5745L30.0782 13.5353L26.2263 14.6138ZM22.6414 13.7799L13.4656 28.5455L20.2605 32.768L29.4363 18.0024L22.6414 13.7799ZM13.4432 28.582C12.7818 29.6722 12.497 30.9495 12.6326 32.2174L20.5872 31.3667C20.6381 31.8427 20.5312 32.3222 20.2829 32.7315L13.4432 28.582ZM12.6326 32.2174C12.7682 33.4853 13.3167 34.6736 14.1937 35.5992L20.0012 30.0971C20.3304 30.4446 20.5363 30.8907 20.5872 31.3667L12.6326 32.2174ZM14.2171 35.6237L16.0804 37.5573L21.841 32.0062L19.9777 30.0726L14.2171 35.6237ZM16.1031 37.5807C17.3591 38.863 18.9814 39.7248 20.7471 40.0476L22.1858 32.178C22.0461 32.1525 21.9177 32.0843 21.8183 31.9828L16.1031 37.5807ZM20.7471 40.0476C22.5127 40.3704 24.335 40.1383 25.9634 39.3834L22.5986 32.1254C22.4697 32.1852 22.3255 32.2035 22.1858 32.178L20.7471 40.0476ZM25.989 39.3714L27.6765 38.5745L24.2605 31.3405L22.573 32.1374L25.989 39.3714ZM27.6554 38.5844C28.1764 38.3421 28.7478 38.2278 29.322 38.2511L29.6463 30.2577C27.7981 30.1827 25.9588 30.5506 24.2817 31.3306L27.6554 38.5844ZM29.2717 38.2488C30.4392 38.3109 32.1156 38.3716 34.2771 38.3716V30.3716C32.2667 30.3716 30.7323 30.3151 29.6966 30.2601L29.2717 38.2488ZM30.8031 32.3889L21.2523 49.1232L28.2004 53.0887L37.7511 36.3543L30.8031 32.3889ZM21.2448 49.1365C20.1306 51.106 19.6301 53.3634 19.8073 55.6193L27.7827 54.9927C27.7303 54.3256 27.8784 53.6579 28.2079 53.0755L21.2448 49.1365ZM19.8073 55.6193C19.9846 57.8752 20.8315 60.0268 22.2397 61.7982L28.5021 56.82C28.0856 56.2962 27.8352 55.6599 27.7827 54.9927L19.8073 55.6193ZM25.3709 63.3091H55.0779V55.3091H25.3709V63.3091ZM55.0779 59.3091C58.9249 60.4047 58.9253 60.4033 58.9258 60.4017C58.926 60.4009 58.9265 60.3991 58.927 60.3975C58.9278 60.3944 58.9289 60.3906 58.9302 60.3861C58.9327 60.3771 58.9361 60.3653 58.9401 60.3507C58.9483 60.3215 58.9594 60.2813 58.9733 60.2305C59.001 60.1287 59.0399 59.9842 59.088 59.7997C59.1841 59.4307 59.3173 58.901 59.4728 58.2327C59.7836 56.8975 60.1854 55.0018 60.559 52.7236C61.3018 48.195 61.9551 42.0268 61.5038 35.6942C61.0558 29.4077 59.4928 22.5728 55.4655 17.0581C51.3126 11.3716 44.8382 7.50321 35.5255 6.80467L34.9271 14.7823C42.0969 15.3201 46.3452 18.1343 49.0049 21.7763C51.7902 25.5901 53.1297 30.7295 53.524 36.2628C53.9151 41.7501 53.3503 47.2472 52.6645 51.4288C52.3238 53.5059 51.9587 55.2266 51.6811 56.419C51.5425 57.0146 51.4261 57.4765 51.3463 57.7832C51.3063 57.9364 51.2756 58.0508 51.2557 58.1234C51.2458 58.1597 51.2386 58.1856 51.2344 58.2008C51.2323 58.2083 51.2309 58.2132 51.2303 58.2153C51.23 58.2164 51.2299 58.2168 51.23 58.2164C51.2301 58.2163 51.2303 58.2155 51.2303 58.2155C51.2306 58.2145 51.2309 58.2134 55.0779 59.3091ZM34.8991 6.80688C34.9765 6.80052 35.0543 6.80052 35.1317 6.80688L34.4772 14.7801C34.8354 14.8095 35.1954 14.8095 35.5536 14.7801L34.8991 6.80688ZM35.5022 6.8548L27.4983 5.43683L26.1028 13.3142L34.1067 14.7321L35.5022 6.8548ZM27.4981 5.43679C26.6025 5.27818 25.6813 5.34961 24.8208 5.64437L27.4134 13.2126C26.9923 13.3569 26.5414 13.3918 26.103 13.3142L27.4981 5.43679ZM24.8208 5.64437C23.9603 5.93914 23.1888 6.4476 22.5786 7.12205L28.5109 12.4894C28.2122 12.8195 27.8346 13.0683 27.4134 13.2126L24.8208 5.64437ZM22.5786 7.12205C21.9684 7.7965 21.5394 8.61488 21.332 9.50045L29.1211 11.3252C29.0195 11.7587 28.8096 12.1592 28.5109 12.4894L22.5786 7.12205ZM21.332 9.50045C21.1245 10.386 21.1453 11.3098 21.3925 12.1851L29.0915 10.0112C29.2124 10.4396 29.2226 10.8918 29.1211 11.3252L21.332 9.50045ZM21.3901 12.1767L22.3745 15.6923L30.0782 13.5353L29.0938 10.0196L21.3901 12.1767ZM22.3533 15.6136C22.2755 15.3122 22.2587 14.9984 22.3039 14.6904L30.2191 15.8523C30.3287 15.1057 30.288 14.3447 30.0994 13.614L22.3533 15.6136ZM22.3039 14.6904C22.3491 14.3825 22.4554 14.0867 22.6165 13.8205L29.4612 17.9618C29.8518 17.3161 30.1095 16.5989 30.2191 15.8523L22.3039 14.6904Z" fill="#830900" mask="url(#path-1-inside-1)"/>
<path d="M36.3281 38.8592C37.7797 38.549 39.1369 37.8986 40.288 36.9614C41.439 36.0243 42.3511 34.8272 42.9492 33.4686C42.9845 33.3808 42.9908 33.284 42.9673 33.1923C42.9439 33.1006 42.8918 33.0187 42.8186 32.9586C42.7455 32.8985 42.6551 32.8633 42.5605 32.8581C42.466 32.8529 42.3723 32.8779 42.293 32.9296C39.5977 34.5233 34.3711 34.371 34.3711 34.371L28.957 43.8163C29.918 42.4921 30 40.4647 36.3281 38.8592Z" fill="#ED3F3E"/>
<path d="M25.3712 59.3555L23.2267 60.7734C22.8406 61.0322 22.5228 61.3805 22.3004 61.7886C22.078 62.1967 21.9575 62.6525 21.9493 63.1172V64.9805C21.9478 65.0584 21.9618 65.1359 21.9905 65.2083C22.0193 65.2807 22.0622 65.3467 22.1168 65.4024C22.1713 65.458 22.2364 65.5023 22.3083 65.5324C22.3802 65.5626 22.4573 65.5781 22.5353 65.5781H57.8087C57.8867 65.5781 57.9638 65.5626 58.0357 65.5324C58.1075 65.5023 58.1727 65.458 58.2272 65.4024C58.2818 65.3467 58.3247 65.2807 58.3535 65.2083C58.3822 65.1359 58.3962 65.0584 58.3947 64.9805V63.1641C58.3864 62.6994 58.266 62.2435 58.0436 61.8354C57.8212 61.4273 57.5034 61.0791 57.1173 60.8203L54.9728 59.4023L25.3712 59.3555Z" fill="#ED3F3E"/>
<path d="M29.2969 22.5469C29.2969 22.7508 29.2364 22.9502 29.1231 23.1198C29.0098 23.2894 28.8487 23.4216 28.6603 23.4996C28.4718 23.5777 28.2645 23.5981 28.0644 23.5583C27.8644 23.5185 27.6806 23.4203 27.5364 23.2761C27.3922 23.1319 27.294 22.9481 27.2542 22.7481C27.2144 22.548 27.2348 22.3407 27.3129 22.1522C27.3909 21.9638 27.5231 21.8027 27.6927 21.6894C27.8623 21.5761 28.0617 21.5156 28.2656 21.5156C28.5391 21.5156 28.8014 21.6243 28.9948 21.8177C29.1882 22.0111 29.2969 22.2734 29.2969 22.5469Z" fill="white"/>
</svg>
