<svg width="48" height="36" viewBox="0 0 48 36" fill="none" xmlns="http://www.w3.org/2000/svg">
<path d="M24.0002 35.4897C26.0989 35.4897 27.8002 33.7883 27.8002 31.6896C27.8002 29.591 26.0989 27.8896 24.0002 27.8896C21.9015 27.8896 20.2002 29.591 20.2002 31.6896C20.2002 33.7883 21.9015 35.4897 24.0002 35.4897Z" fill="#830900"/>
<path d="M10.3896 20.2299L15.5796 25.4199C17.8157 23.1922 20.8433 21.9414 23.9996 21.9414C27.156 21.9414 30.1836 23.1922 32.4196 25.4199L37.6096 20.2299C33.9984 16.6234 29.1034 14.5977 23.9996 14.5977C18.8959 14.5977 14.0009 16.6234 10.3896 20.2299Z" fill="#ED3F3E"/>
<path d="M0.419922 10.2602L5.60992 15.4602C8.02444 13.0443 10.8913 11.1278 14.0467 9.82029C17.2022 8.51274 20.5843 7.83974 23.9999 7.83974C27.4155 7.83974 30.7977 8.51274 33.9531 9.82029C37.1085 11.1278 39.9754 13.0443 42.3899 15.4602L47.5799 10.2602C41.3206 4.01686 32.8407 0.510742 23.9999 0.510742C15.1592 0.510742 6.67928 4.01686 0.419922 10.2602Z" fill="#ED3F3E"/>
</svg>
